{
  "Actor": {
    "types": ["character"],
    "templates": {
      "common": {
        "name": "",
        "characteristics": {
          "str": {
            "label": "MYTHRAS.STRENGTH",
            "value": 11,
            "mod": 0,
            "pool": 11
          },
          "con": {
            "label": "MYTHRAS.CONSTITUTION",
            "value": 11,
            "mod": 0,
            "pool": 11
          },
          "siz": {
            "label": "MYTHRAS.SIZE",
            "value": 11,
            "mod": 0,
            "pool": 11
          },
          "dex": {
            "label": "MYTHRAS.DEXTERITY",
            "value": 11,
            "mod": 0,
            "pool": 11
          },
          "int": {
            "label": "MYTHRAS.INTELLIGENCE",
            "value": 11,
            "mod": 0,
            "pool": 11
          },
          "pow": {
            "label": "MYTHRAS.POWER",
            "value": 11,
            "mod": 0,
            "pool": 11
          },
          "cha": {
            "label": "MYTHRAS.CHARISMA",
            "value": 11,
            "mod": 0,
            "pool": 11
          }
        },
        "trackedStats": {
          "experienceRolls": {
            "name": "MYTHRAS.EXPERIENCE_ROLLS",
            "attribute": "",
            "value": 0,
            "display": true,
            "derivedFrom": ""
          },
          "tenacity": {
            "name": "MYTHRAS.TENACITY",
            "attribute": "tenacity",
            "value": 11,
            "display": true,
            "derivedFrom": "maxTenacity"
          },
          "magicPoints": {
            "name": "MYTHRAS.MAGIC_POINTS",
            "attribute": "magicPoints",
            "value": 0,
            "display": true,
            "derivedFrom": "maxMagicPoints"
          },
          "luckPoints": {
            "name": "MYTHRAS.LUCK_POINTS",
            "attribute": "luckPoints",
            "value": 0,
            "display": true,
            "derivedFrom": "maxLuckPoints"
          },
          "actionPoints": {
            "name": "MYTHRAS.ACTION_POINTS",
            "attribute": "actionPoints",
            "value": 0,
            "display": true,
            "derivedFrom": "maxActionPoints"
          }
        },
        "attributes": {
          "actionPoints": {
            "mod": 0,
            "value": 2,
            "minimize": 0
          },
          "damageMod": {
            "mod": 0
          },
          "experienceMod": {
            "mod": 0
          },
          "healingRate": {
            "mod": 0
          },
          "hitPointMod": {
            "mod": 0
          },
          "initiativeBonus": {
            "mod": 0
          },
          "luckPoints": {
            "mod": 0,
            "value": 2,
            "minimize": 0
          },
          "magicPoints": {
            "mod": 0,
            "value": 11,
            "minimize": 0
          },
          "tenacity": {
            "mod": 0,
            "value": 11,
            "minimize": 0
          },
          "movement": {
            "walk": 6,
            "mod": 0
          },
          "walk": {
            "mod": 0
          },
          "run": {
            "mod": 0
          },
          "sprint": {
            "mod": 0
          },
          "climb": {
            "mod": 0
          },
          "jumpHorizontal": {
            "mod": 0
          },
          "jumpVertical": {
            "mod": 0
          },
          "swim": {
            "mod": 0,
            "base": 6
          },
          "fatigue": {
            "value": "fresh"
          },
          "encumbrance": {
            "value": 0,
            "mod": 0
          },
          "armorPenalty": {
            "value": 0,
            "mod": 0
          },
          "experienceRoll": {
            "minimize": 0
          }
        },
        "currentLuckPoints": 2,
        "currentMagicPoints": 11,
        "currentActionPoints": 2,
        "experienceRolls": 0,
        "spellFilterOption": "All"
      },
      "humanoid": {}
    },
    "character": {
      "templates": ["common", "humanoid"],
      "career": "",
      "homeland": "",
      "socialClass": "",
      "gender": "",
      "age": "",
      "handedness": "",
      "frame": "",
      "height": "",
      "weight": "",
      "raceCulture": "",
      "species": "",
      "journal": "",
      "abilitiesDesc": "",
      "cult information": "",
      "conditionsAndWounds": ""
    }
  },
  "Item": {
    "types": [
      "standardSkill",
      "hitLocation",
      "professionalSkill",
      "combatStyle",
      "magicSkill",
      "passion",
      "melee-weapon",
      "ranged-weapon",
      "armor",
      "equipment",
      "cyberModule",
      "currency",
      "spell",
      "storage",
      "cultBrotherhood"
    ],
    "templates": {
      "base": {
        "description": ""
      },
      "skill": {
        "description": "",
        "primaryChar": "str",
        "secondaryChar": "str",
        "baseVal": {
          "value": 0,
          "init": 0
        },
        "trainingVal": 0,
        "miscBonus": 0,
        "totalVal": 0,
        "trained": false,
        "fumbled": false
      },
      "item": {
        "defaultImageSet": false,
        "description": "",
        "encumbrance": 0,
        "quantity": 1,
        "value": 0,
        "ap": 0,
        "currentAp": 0,
        "hp": 0,
        "currentHp": 0,
        "storage": "Unknown",
        "storageList": []
      }
    },
    "cyberModule": {
      "templates": ["item"],
      "moduleSize": 1,
      "cyberModuleAvailibility": "",
      "installLocationName": "Unequipped",
      "installLocationId": "Unequipped",
      "cyberModuleEnabled": true,
      "cyberModuleInstalled": false
    },
    "storage": {
      "templates": ["item"],
      "maxEncumbrance": 0,
      "carried": false
    },
    "hitLocation": {
      "rollRangeStart": 0,
      "rollRangeEnd": 0,
      "baseHp": 0,
      "maxHp": 0,
      "currentHp": 0,
      "maxHpMod": 0,
      "naturalArmor": 0,
      "wardLocation": false
    },
    "standardSkill": {
      "templates": ["skill"]
    },
    "professionalSkill": {
      "templates": ["skill"]
    },
    "combatStyle": {
      "templates": ["skill"],
      "secondaryChar": "dex",
      "traits": "",
      "weapons": ""
    },
    "magicSkill": {
      "templates": ["skill"],
      "skillType": "FM",
      "intensity": {
        "min": 0,
        "max": 0,
        "base": 0
      },
      "magnitude": {
        "min": 0,
        "max": 0,
        "base": 0
      },
      "spiritBounded": {
        "max": 0,
        "used": 0
      },
      "maxSpiritBoundedPow": 0,
      "combinedTalentIntensity": {
        "max": 0,
        "used": 0
      },
      "maxShapingPoints": 0,
      "devotionalPool": {
        "max": 0,
        "used": 0
      },
      "cultId": ""
    },
    "passion": {
      "templates": ["skill"]
    },
    "melee-weapon": {
      "templates": ["item"],
      "damage": 0,
      "damageModifier": true,
      "size": "S",
      "reach": "T",
      "combat-effects": "",
      "traits": "",
      "hands": "one"
    },
    "ranged-weapon": {
      "templates": ["item"],
      "damage": 0,
      "damageModifier": true,
      "force": "S",
      "range": {
        "close": 0,
        "effective": 0,
        "long": 0
      },
      "load": 0,
      "combat-effects": "",
      "impale-size": "S",
      "ammo": 0
    },
    "armor": {
      "templates": ["item"],
      "hitLoc": [],
      "location": "Unequipped",
      "locationName": "",
      "armorType": "",
      "equipped": false
    },
    "equipment": {
      "templates": ["item"]
    },
    "currency": {
      "templates": ["item"]
    },
    "ability": {
      "templates": ["base"]
    },
    "spell": {
      "templates": ["base"],
      "spellLevel": 1,
      "sourceList": [],
      "source": "Uncategorized",
      "sourceID": "Uncategorized",
      "cost": 0,
      "castTime": "",
      "duration": "",
      "range": "",
      "area": "",
      "targets": "",
      "durationMult": 0,
      "traits": "",
      "intensity": {
        "mod": 0
      },
      "magnitude": {
        "mod": 0
      }
    },
    "cultBrotherhood": {
      "templates": ["base"],
      "rankName0": "Common",
      "rankName1": "Dedicated",
      "rankName2": "Proven",
      "rankName3": "Overseer",
      "rankName4": "Leader",
      "currentRank": 0,
      "currentRankName": "Common"
    }
  }
}
